Id,SalePrice
1461,119200.5537466952
1462,122833.45845104221
1463,168109.56584157288
1464,195206.40091532594
1465,181094.63485686408
1466,175896.68503205347
1467,197890.7531921385
1468,171497.33275077867
1469,197683.0250615196
1470,119274.80003767567
1471,196596.1190793579
1472,110856.66162167539
1473,100874.48477027265
1474,158128.51280133607
1475,123181.19794553939
1476,330781.52142498887
1477,245937.71804177234
1478,274042.4141178228
1479,257192.30559725332
1480,411880.0615845517
1481,293928.0823104869
1482,199042.64564451517
1483,166102.10452112224
1484,161777.48334149722
1485,205629.0274161358
1486,204306.95695867235
1487,310605.514012623
1488,247035.67843390038
1489,181865.19510388182
1490,216202.94017166056
1491,193825.87048576926
1492,97413.43216769674
1493,228388.8245606342
1494,289347.1898537617
1495,285921.6437741668
1496,208543.23933138032
1497,163246.16934618636
1498,152426.1387264752
1499,165346.75011705712
1500,152366.54941089032
1501,156298.87078991762
1502,149488.2876025336
1503,301537.8368810912
1504,245893.1721470321
1505,219470.26237459425
1506,186195.30037985867
1507,237329.44073651108
1508,185878.30824662957
1509,158206.47186209078
1510,136940.10039629508
1511,139000.93764746003
1512,168907.24205493732
1513,130501.48806429094
1514,144721.92478146733
1515,190923.7430014748
1516,148429.4389163667
1517,158286.13001133795
1518,127439.36472920584
1519,212459.4599722907
1520,119557.72742671805
1521,112122.79025472014
1522,188296.38450023512
1523,97059.51793665372
1524,114602.1074828248
1525,110099.87219355974
1526,98892.3757911989
1527,104754.96640281231
1528,155450.02757730006
1529,132184.0940325551
1530,223299.11514059672
1531,115029.08836077148
1532,108269.16864336331
1533,152154.43801636528
1534,128392.87058687056
1535,143490.73405895647
1536,108024.10087166517
1537,74550.94765938737
1538,168925.1116339608
1539,193392.53265804113
1540,84445.69704005646
1541,139323.56733210874
1542,131030.73590161282
1543,175147.54959997188
1544,98551.28414346487
1545,127712.37064242126
1546,145306.5081244134
1547,137677.72755370062
1548,135770.21250042954
1549,121481.95387164413
1550,128100.19663569912
1551,124777.13955688708
1552,135075.1310652141
1553,141062.68872773024
1554,128141.30837976708
1555,143947.3089296378
1556,94014.17075715019
1557,87407.16900091746
1558,103358.52367602647
1559,78308.29669311253
1560,122078.62408343772
1561,114264.9769689778
1562,133499.36842103198
1563,117329.52923723847
1564,153872.73601852913
1565,147782.6037720298
1566,243009.89271401777
1567,84833.51922100352
1568,204347.4559490895
1569,106793.89500522634
1570,149520.049368008
1571,125933.7125357039
1572,139936.4163122992
1573,243648.3169369922
1574,118793.99903661321
1575,223994.3699299681
1576,256903.7110373068
1577,180821.69393878168
1578,135718.91269485687
1579,134762.98880951316
1580,200536.37865691484
1581,161377.52290825857
1582,133250.2418902591
1583,313205.3638771759
1584,225383.5135973417
1585,140490.17679763876
1586,86240.44867862843
1587,109782.10160474639
1588,142456.9352132194
1589,105321.8103138762
1590,141378.3809128449
1591,85966.85708104009
1592,118255.9597831002
1593,142719.4515923814
1594,124829.84342330939
1595,97700.97468919438
1596,201526.44882037764
1597,155178.83814580223
1598,203763.21959542084
1599,187647.7087247192
1600,177867.56662574384
1601,68220.5307947878
1602,115106.91302273293
1603,92512.43016575706
1604,246214.0652649538
1605,267360.1960722111
1606,175478.6163530811
1607,172107.35919297423
1608,230704.5874021624
1609,189645.26814833525
1610,154198.96570705922
1611,147514.25147977265
1612,156671.3117024904
1613,171737.2048840955
1614,134786.37034160757
1615,93950.63281981033
1616,81290.08570462049
1617,99489.93869614102
1618,124535.75235996394
1619,153702.94521772987
1620,165018.5334515819
1621,136678.75890651564
1622,137429.55787048163
1623,286855.74805029284
1624,199167.11893533778
1625,114583.06844591559
1626,178451.05068432752
1627,184852.81893623632
1628,279126.17479336314
1629,189488.2600429488
1630,295534.74996379006
1631,201027.08163628957
1632,212329.57337995587
1633,189386.9733017561
1634,195209.42835658707
1635,187295.07669371576
1636,166053.20598176811
1637,189426.93534250042
1638,206421.8535093529
1639,189044.41622065805
1640,254560.39857879584
1641,180335.38849702297
1642,225258.9213918333
1643,220618.68309300527
1644,232251.69060632293
1645,242881.30473741
1646,171398.38469708778
1647,168910.08651271934
1648,128215.72425683623
1649,137765.5193912726
1650,125204.09154984655
1651,127066.78170333867
1652,117235.46534438728
1653,122524.45689889898
1654,155236.8207410188
1655,154329.751384425
1656,148731.1747177571
1657,158614.20968752998
1658,152128.8822947952
1659,132791.40131643563
1660,146981.85477187004
1661,426773.49328071333
1662,366304.4697508295
1663,328034.86279403005
1664,498949.46503882424
1665,286669.22124458133
1666,294099.5728095296
1667,340547.5417384444
1668,316748.04708285973
1669,291452.60711120925
1670,315376.90697840304
1671,235565.95411031522
1672,385807.4437795008
1673,292264.50818637427
1674,251432.92592866346
1675,170820.47452776032
1676,179139.32168559186
1677,198983.4391230058
1678,405284.01346868277
1679,319907.95368848514
1680,285572.4034844043
1681,222416.7712111444
1682,275572.92116408027
1683,182482.65220827222
1684,199711.69387639398
1685,180111.94791119223
1686,174028.8145088367
1687,187841.88825474397
1688,201723.45297660193
1689,206618.91646561434
1690,213115.39625473294
1691,206322.60458822062
1692,280108.9125367008
1693,178319.24560170647
1694,193767.65584339338
1695,183918.94282253002
1696,283312.8145847933
1697,192030.3629319265
1698,351124.8826245611
1699,306671.5501885424
1700,243921.30714804184
1701,258415.76351662423
1702,245197.3903702503
1703,263904.022594013
1704,275605.20142827026
1705,227756.6404929732
1706,387081.55902588676
1707,196014.67773367002
1708,194104.54118077227
1709,268644.18487937795
1710,212307.73754874867
1711,276126.01691700565
1712,253150.629320087
1713,259199.76275026804
1714,215540.1334151673
1715,201201.63340941086
1716,183092.53678448035
1717,195281.70614401973
1718,131958.25630270195
1719,194229.76885710345
1720,236263.34599043353
1721,181196.1768417218
1722,123085.58100275797
1723,162567.04615846367
1724,216774.83494704094
1725,234889.05967739059
1726,186151.51209068217
1727,143849.23686489672
1728,196516.20616505295
1729,165786.1821391259
1730,180854.40589296023
1731,128718.36407110588
1732,125330.421861905
1733,108581.19920981716
1734,116857.14319203737
1735,138531.89348183753
1736,114947.05795018713
1737,378909.1889920836
1738,252908.50254272326
1739,259414.15868293424
1740,189630.50053285935
1741,171864.60782875356
1742,158220.0557844203
1743,178128.02590788528
1744,310647.009003143
1745,194773.75303040055
1746,212726.30558148705
1747,225455.10376033685
1748,227885.21015854535
1749,150961.7892481222
1750,136684.75013869035
1751,270776.3904159361
1752,113545.32852396587
1753,142714.0205984966
1754,215841.81833491355
1755,150595.14762994324
1756,143115.20053200863
1757,113304.6386494629
1758,144404.9327727689
1759,167895.12394490503
1760,173069.5282166304
1761,160989.577501894
1762,168789.87605531138
1763,167404.7135056459
1764,110810.77820577832
1765,169107.01396865663
1766,197692.23451484044
1767,253288.03342519634
1768,133430.65755328248
1769,186861.30702912778
1770,161401.05920695505
1771,116926.92147340918
1772,122688.15765595829
1773,124987.3352599608
1774,127194.59586101228
1775,137714.45060063797
1776,129554.26693223549
1777,106691.5721654523
1778,137042.33079826168
1779,118611.18660827658
1780,197469.92301247042
1781,116486.04809006897
1782,83438.85182003267
1783,149612.99221451074
1784,101338.81114267015
1785,110726.38209541241
1786,167734.03797176338
1787,166788.2845908554
1788,63777.98531597308
1789,105180.98985743294
1790,73927.11135934867
1791,201580.17276618673
1792,156876.2021918425
1793,151966.801720949
1794,172314.84251199785
1795,121171.19187738247
1796,116442.51794001042
1797,135734.55944863136
1798,111345.62174011907
1799,113627.19402259728
1800,113064.17329330147
1801,117536.62632974715
1802,161552.93111268792
1803,146764.36720822685
1804,134863.31201680272
1805,142317.27410833287
1806,136083.3626426372
1807,148473.4129392146
1808,126645.49249537928
1809,110408.72271484001
1810,143488.79449484742
1811,84384.00925580235
1812,93510.07269913162
1813,122042.06019793883
1814,98214.77290147991
1815,66007.1435824406
1816,102165.17144411443
1817,99503.76398921726
1818,125447.21667044242
1819,132801.5274405535
1820,70814.9453447811
1821,127992.63896642126
1822,157411.50549941225
1823,60245.48613583681
1824,129778.62856591494
1825,132702.58695832783
1826,97027.62538109891
1827,106821.68197741588
1828,132672.5597251017
1829,151765.7311449972
1830,141245.8546838493
1831,160793.50077507633
1832,89723.65195725686
1833,144841.96976321295
1834,126561.81279606096
1835,119686.56874136791
1836,122443.36601367524
1837,90010.05784732105
1838,126663.42986808698
1839,111004.1047931379
1840,149908.22632908967
1841,133158.10491205053
1842,100784.2170263086
1843,125351.23020469527
1844,137024.33193996528
1845,139844.59150386215
1846,143871.3767683303
1847,144735.42707016345
1848,58086.51092186254
1849,119154.56087738762
1850,114325.49121316687
1851,142163.25208537976
1852,131900.4920383611
1853,120504.06639376224
1854,173390.0703534019
1855,155381.17169262964
1856,236616.39418923046
1857,133762.7667364225
1858,148492.12310338265
1859,131885.10042727675
1860,163039.73914495017
1861,131342.81323004444
1862,394070.45118973317
1863,389518.7316289463
1864,388174.12930655654
1865,333441.9973362407
1866,321439.95517152455
1867,245247.89157072845
1868,275656.84855990886
1869,217087.1351818631
1870,233666.4629321461
1871,245273.88973290776
1872,176359.2417678955
1873,218958.61752710742
1874,151796.8076260588
1875,202423.46622389398
1876,200055.8912528789
1877,209092.61801247412
1878,209828.39187458708
1879,115196.84595266386
1880,143917.7598835219
1881,242206.3897024669
1882,244488.8036547839
1883,187522.4798702024
1884,197661.932550723
1885,234556.49983508623
1886,261812.526730597
1887,225991.25573382116
1888,294454.03453509527
1889,173794.04931348015
1890,115654.06470351743
1891,143520.34312830318
1892,95248.26329213756
1893,125716.49759420584
1894,113078.44904365811
1895,126852.30459742657
1896,124117.67317046609
1897,115634.98937167098
1898,126118.14396374437
1899,156998.44125040525
1900,151107.5999918856
1901,155806.50990431293
1902,122683.90085987994
1903,207939.76765849107
1904,130662.455600265
1905,185015.90520111698
1906,159523.88159698067
1907,182525.93219233124
1908,136700.98117761215
1909,159843.44502207922
1910,143733.70023238283
1911,209246.33455815862
1912,322416.53044906986
1913,154743.37747387626
1914,83185.59937038516
1915,260490.4199688546
1916,61876.667092998105
1917,259933.8957364055
1918,143103.3637665986
1919,202014.7120542944
1920,163489.3526824036
1921,333990.3072665316
1922,283215.3918371737
1923,215015.94005230183
1924,217935.00856273764
1925,205712.12419047626
1926,336381.9204246212
1927,124085.71329707532
1928,152422.31655010986
1929,117892.02758808773
1930,133586.31923471217
1931,146569.2949946392
1932,139397.92190392193
1933,166691.4157530958
1934,179135.28820056122
1935,176777.50594270977
1936,174351.61706050351
1937,185864.4718189124
1938,170278.96667392593
1939,221581.27623752155
1940,183323.9966662335
1941,178566.3088585123
1942,182275.995294983
1943,198367.38651213108
1944,300107.92500107695
1945,328054.88558904314
1946,148171.8900293761
1947,257847.40643192726
1948,176414.80466545478
1949,238463.00477171654
1950,205012.87501707952
1951,254003.4632488412
1952,213478.17445662172
1953,177387.16601807688
1954,203336.08102291005
1955,133170.98198699293
1956,361849.43553698226
1957,158475.33772539455
1958,313812.0521252343
1959,142570.0365336254
1960,103110.43345179604
1961,129213.7796453842
1962,111793.45249376923
1963,120223.96663479395
1964,112595.11699872835
1965,150000.974153357
1966,149180.8130905293
1967,274169.9052509936
1968,361050.32053571695
1969,314001.9176247315
1970,371904.1402623842
1971,469188.5909442847
1972,341758.65604862757
1973,272648.6305787449
1974,306833.91299504385
1975,430087.074341413
1976,269925.9053091242
1977,305805.91057594185
1978,306368.2554949547
1979,305250.9896414344
1980,170622.61712152406
1981,300097.0341560094
1982,214298.7277516658
1983,194558.7265283858
1984,170899.91416809816
1985,236954.63850333093
1986,230670.40957311704
1987,200419.87804706153
1988,178609.36360667544
1989,202439.98130860834
1990,217478.66524960418
1991,224178.15694997643
1992,209927.0751020688
1993,187904.69286465863
1994,236005.3966445778
1995,192681.88901517438
1996,226340.64300318938
1997,285614.4316921874
1998,275171.19837472524
1999,265572.8957913246
2000,299014.98578712856
2001,270182.5550827559
2002,249100.14785252503
2003,261330.29462658006
2004,294270.754956578
2005,218330.7515121502
2006,219758.35009898606
2007,250293.47670506482
2008,208840.38955436499
2009,193931.89854756178
2010,196686.13429376623
2011,141453.80669636524
2012,176398.94645671142
2013,163889.40827297047
2014,177304.92524469513
2015,186251.14494097527
2016,188318.33815279277
2017,190464.0658515794
2018,126077.93926030613
2019,146607.42089313176
2020,101478.99426298306
2021,104172.82824675714
2022,183101.87748824255
2023,143862.07377479647
2024,264216.6018113989
2025,327040.1953261334
2026,162317.57630462662
2027,154861.64866905176
2028,158146.5505643249
2029,165476.71688848906
2030,248398.79223278048
2031,233215.6867766595
2032,236233.54878734506
2033,238263.742190202
2034,175710.73234632373
2035,217341.64621261862
2036,210344.20676653707
2037,212070.65789964428
2038,309561.44290184433
2039,207531.74479260828
2040,300164.83439847047
2041,292847.0740341415
2042,200834.14938201636
2043,155128.99763138252
2044,189919.98800256537
2045,212070.30964827831
2046,136996.39141541644
2047,136954.8397997041
2048,150781.12285388802
2049,139523.1034097935
2050,172601.86455650267
2051,113464.69526377923
2052,136011.25567390767
2053,143946.88428678125
2054,91204.36807022957
2055,139464.08074607747
2056,152029.57315011907
2057,107058.79693391162
2058,194311.58136485805
2059,131880.73182267853
2060,175531.56014760892
2061,179233.97154188826
2062,117429.8414379466
2063,112032.42951327466
2064,125872.50951978035
2065,111676.77344358416
2066,164974.398649203
2067,132483.59984023919
2068,134585.56762712167
2069,92950.80718358289
2070,112012.5307816646
2071,95156.90795513162
2072,150420.8703934803
2073,140995.3854798579
2074,172334.13899606853
2075,140620.8974216298
2076,125194.58969408619
2077,129299.34329456114
2078,112907.67532049654
2079,134857.63929981578
2080,126945.70225391687
2081,117995.69147278633
2082,113284.93071645914
2083,135260.05289426955
2084,109692.67828137217
2085,111168.91885152952
2086,155968.2442551585
2087,135528.542134324
2088,100505.36248156648
2089,87235.7078584652
2090,135658.31173155026
2091,86012.88484719147
2092,128895.3012557044
2093,114862.4977348763
2094,121979.89024898924
2095,139388.62345383235
2096,94638.40337381444
2097,96396.02669562606
2098,140348.27549485792
2099,68861.00804154336
2100,81664.48807136518
2101,108374.19349325691
2102,132371.60285749304
2103,100861.99336026065
2104,126513.78010489992
2105,117179.71104329811
2106,67788.56702136071
2107,185040.30460177525
2108,118666.84476679083
2109,109745.1375403423
2110,121259.48396973565
2111,158239.65202793907
2112,120417.17518649646
2113,120024.66153116227
2114,125375.98886686978
2115,151215.31548923024
2116,128514.6765091146
2117,140385.8946398439
2118,119650.91496086332
2119,116243.14696637273
2120,129592.5720904164
2121,98402.663049919
2122,93639.72938788515
2123,106889.46324582737
2124,169285.9602063528
2125,124864.61207365205
2126,132665.09456942294
2127,154012.8307627752
2128,122129.93393784061
2129,114553.50294529785
2130,129646.67829009099
2131,186798.6716272783
2132,119779.04513212813
2133,125657.75229323252
2134,128763.93294980087
2135,111995.47949029492
2136,63174.0836206652
2137,116494.02515403517
2138,132139.59077074783
2139,157706.44561567335
2140,141395.72948595945
2141,165445.95102560142
2142,110844.21994586289
2143,138355.2272371018
2144,104519.38599779499
2145,141311.3168465096
2146,174186.3721553346
2147,138901.36754526792
2148,152219.12700353112
2149,144653.24849237804
2150,229577.5393421277
2151,125332.71227845734
2152,142308.944523567
2153,186051.25367117624
2154,102868.07743571342
2155,145484.58880237438
2156,253935.03915335864
2157,237810.86561760947
2158,223833.1624048243
2159,207239.02106782096
2160,202154.94873969478
2161,257158.88349212843
2162,420573.25340946467
2163,372239.4198258882
2164,241606.0597727044
2165,193875.53645331308
2166,160839.17885348902
2167,212591.46066193242
2168,186376.11012656905
2169,184213.9103672464
2170,202058.9702793957
2171,159431.4780327655
2172,144215.9568173513
2173,201243.70252613418
2174,224201.94546154837
2175,313121.83126730105
2176,293018.11150537396
2177,237069.32422339573
2178,218144.45629733478
2179,137242.7558136223
2180,221916.66979538245
2181,186187.94427259904
2182,218309.0796039791
2183,186177.0971131673
2184,125322.23940348154
2185,125212.51788270421
2186,167249.52695119107
2187,167583.66641529583
2188,167147.49960829757
2189,301471.68380828603
2190,82768.41899800932
2191,82412.10512786348
2192,78923.023744823
2193,105348.41739579658
2194,117280.16347931084
2195,92682.88246415221
2196,99631.5239007179
2197,115155.00260050088
2198,157970.88399673393
2199,217357.43106425393
2200,132481.71585960142
2201,128393.23037548274
2202,201346.30835594283
2203,115432.18903547087
2204,142743.46957610283
2205,103970.70948462018
2206,133966.04550636886
2207,201102.22010209822
2208,257709.7316901701
2209,186558.50097857203
2210,138269.76939306187
2211,138263.1103389687
2212,129825.43933894616
2213,100585.27828826645
2214,130461.93961291392
2215,108049.18173215943
2216,127364.87865254184
2217,73194.47581784733
2218,88409.51259435448
2219,94829.61906284814
2220,88830.84078878272
2221,262175.63694883103
2222,227295.10481015465
2223,273956.1169552532
2224,235055.83090863767
2225,138812.9821599138
2226,176041.24098908843
2227,201753.60901937052
2228,258413.95984906857
2229,247421.43835064425
2230,149806.61651309516
2231,216736.50086953994
2232,191211.94843310755
2233,172212.37780771998
2234,240541.6096720617
2235,197846.4893179815
2236,249090.85684556
2237,293778.7488537514
2238,230374.78634134578
2239,115578.43463373132
2240,153754.83341137663
2241,133775.07771872627
2242,117606.58604530818
2243,131729.97207196345
2244,109381.56955581372
2245,106088.17774715042
2246,137414.04646641246
2247,135165.46865062453
2248,127194.97910318685
2249,123538.65930128377
2250,133101.83148574267
2251,98092.85148914815
2252,173856.43271123664
2253,167500.48242546845
2254,180261.96802831982
2255,206765.73365726185
2256,178999.59499274797
2257,216050.8899290081
2258,167737.11354644797
2259,174292.39917747397
2260,158486.9945491272
2261,191044.05038315846
2262,195215.5520718006
2263,332391.1990900488
2264,513098.2114909829
2265,150204.5864533417
2266,241586.98876334308
2267,289679.8544992307
2268,424378.7994206154
2269,170446.65703532097
2270,198332.15928517497
2271,221645.9904232406
2272,218973.25257318476
2273,148637.15254846175
2274,181173.49820540487
2275,163974.05001287934
2276,186557.61124393423
2277,198846.47074105687
2278,162839.62539148921
2279,118014.13199605914
2280,108699.6682860472
2281,163253.93848721829
2282,177878.66146113054
2283,119522.1921281668
2284,119328.93921913893
2285,145049.94082715813
2286,124274.36508879116
2287,333061.696035608
2288,263560.5234252324
2289,336922.51964953565
2290,394613.9328868616
2291,309457.53101105156
2292,422629.0127471877
2293,419022.65688827715
2294,335351.5100927974
2295,467145.3031807235
2296,247785.30438585806
2297,325265.3149503889
2298,291629.75254913035
2299,326942.00928538677
2300,290849.54863194906
2301,293648.9589020088
2302,241921.34737011022
2303,240435.95200886298
2304,251066.1788635079
2305,188859.2494569177
2306,178365.2353209662
2307,184743.1705738059
2308,210246.25982190116
2309,250399.83760792806
2310,207446.68166531352
2311,198081.73553138273
2312,188231.58739954556
2313,180271.234586971
2314,189955.72693040076
2315,191797.57441377398
2316,226513.04536993048
2317,181110.63855851692
2318,181055.1309818122
2319,198065.5906045806
2320,202232.50302008126
2321,251368.88160447293
2322,205898.77052733087
2323,183382.1941035225
2324,205407.28827920466
2325,226561.53041524233
2326,192220.17902235227
2327,211798.4438584425
2328,223707.47579780812
2329,199402.69393822594
2330,193309.76166226369
2331,327109.1057325413
2332,366963.2256067262
2333,324309.37870562566
2334,245509.47039799922
2335,269995.0631253174
2336,285117.82092118927
2337,200611.0167917375
2338,286528.73365012644
2339,225676.075521783
2340,366704.81280244066
2341,228940.84264567576
2342,236521.62792595953
2343,228393.07127982305
2344,227051.79538552547
2345,239287.18711125632
2346,213748.3512183205
2347,191823.50029216055
2348,237516.43254456224
2349,170922.31928449712
2350,296205.786276286
2351,229882.8457206262
2352,241217.99251178204
2353,236909.43892804242
2354,140236.69474120773
2355,145831.15893486183
2356,156288.99153537583
2357,192624.92514161277
2358,178683.42058039914
2359,137542.82167135994
2360,122749.88467720355
2361,149854.15309315233
2362,262160.1665557792
2363,139545.3865829441
2364,191670.1616158091
2365,219692.82937561529
2366,194262.08963072408
2367,216997.07088368837
2368,202696.9568122253
2369,209795.5792172811
2370,174948.60889917993
2371,151573.21194824245
2372,181612.2202946909
2373,292403.817653685
2374,310205.27164295886
2375,232268.56135939382
2376,268514.14279106184
2377,308748.0285337482
2378,158479.95893024167
2379,207660.65573379493
2380,144889.47457971016
2381,163290.86174170466
2382,232321.186251967
2383,205417.5315983723
2384,244494.63822904747
2385,178835.94225012942
2386,128603.10680797193
2387,130714.1472482932
2388,117274.00052725243
2389,122013.75610335759
2390,143850.1929052906
2391,136276.96299952382
2392,112181.87976592066
2393,174512.5573661766
2394,131892.00676751047
2395,211244.54953794804
2396,142724.35617545396
2397,221469.8714748417
2398,133447.9797449443
2399,66334.44216496884
2400,71599.04300936892
2401,125732.98084846382
2402,131845.85058654554
2403,144853.70297525445
2404,141521.9024820045
2405,155538.1255315083
2406,150222.082327265
2407,122273.52274327225
2408,153738.70644608946
2409,117435.86277372396
2410,188145.824413348
2411,111847.0378604528
2412,138504.80388405212
2413,118844.34649242667
2414,145108.0640881159
2415,126608.71502822716
2416,128123.92477645313
2417,130857.66739206904
2418,138784.05140457433
2419,107761.23729653869
2420,126669.24124356259
2421,105535.12202920727
2422,101840.85397793513
2423,99513.90752688581
2424,166062.52279061824
2425,208552.136468346
2426,128611.21082346191
2427,106834.84742898971
2428,190078.42970495182
2429,114386.09478822541
2430,135898.20880776522
2431,109630.4967436973
2432,136263.53927672494
2433,137455.3548927197
2434,127800.54142926294
2435,143076.99523462343
2436,111066.257177604
2437,107322.7931312329
2438,120504.09596347161
2439,117244.61963765035
2440,127517.04130173393
2441,106658.72122984004
2442,108865.17961997389
2443,136522.0638024382
2444,120449.42513888062
2445,88542.72440399826
2446,126647.47100468176
2447,193803.22066890576
2448,139312.86154516504
2449,118528.39002018973
2450,149271.06548123714
2451,128436.68226035709
2452,180555.3831891507
2453,98942.3847776249
2454,120218.58530872126
2455,132788.74124610968
2456,123579.15660862744
2457,127364.9512851541
2458,129528.91052773935
2459,106976.02911292
2460,151556.2353303393
2461,129162.24485659652
2462,131086.6987652518
2463,123583.69996443429
2464,160617.65535876123
2465,129794.32819587523
2466,111228.08584682146
2467,166189.65503980033
2468,95305.64036935396
2469,87529.74291933092
2470,183644.62439590058
2471,241554.61798208414
2472,150227.81923194684
2473,112209.33294737761
2474,83451.309926967
2475,240230.0489449966
2476,102616.7130406085
2477,101977.78526331703
2478,151906.23857844516
2479,110977.7533103846
2480,153238.86746367073
2481,115233.15872059911
2482,121702.43765968521
2483,106080.37162353967
2484,128252.92335053546
2485,131145.40004302544
2486,142209.04291722982
2487,156212.33154963527
2488,177554.878338085
2489,160187.7303140505
2490,149130.87082066145
2491,109909.6592084614
2492,186645.9818274808
2493,151190.45847126382
2494,145772.75501480463
2495,96200.4117966768
2496,237150.43990422465
2497,141299.39512712785
2498,107432.8881682247
2499,101688.1768098135
2500,118129.79933906643
2501,130083.28011303072
2502,146798.155212811
2503,97250.97460015496
2504,154979.09309775362
2505,227005.50200788147
2506,274115.47984021227
2507,295666.82914993836
2508,275244.7089523807
2509,217469.90495143292
2510,227509.94598155638
2511,180435.4141200902
2512,198405.91620846165
2513,222416.548209498
2514,261977.60523968106
2515,138138.32336253164
2516,184768.08852817284
2517,148494.39558129347
2518,149509.61985138655
2519,213562.23365304043
2520,219139.91681817625
2521,186631.80674585
2522,205177.33286851895
2523,120253.21573009496
2524,134516.6391550925
2525,144752.25355334172
2526,133417.07957012008
2527,119842.87261612617
2528,126320.46500078384
2529,138358.00513687608
2530,137383.41862946292
2531,249703.9679942919
2532,227063.16289540837
2533,199971.10891679476
2534,222488.43678890695
2535,281042.7796615739
2536,250041.37102087153
2537,228299.9327688918
2538,196269.94725376595
2539,196300.42977413375
2540,189265.35961012015
2541,198284.88815159618
2542,153981.30971273687
2543,121900.44462554944
2544,112941.54750176765
2545,138456.46907350124
2546,135834.05492264533
2547,163272.04927282673
2548,164128.75925881238
2549,163958.25932790205
2550,776130.5856578067
2551,143696.37603316116
2552,135238.27195982286
2553,76595.89270939217
2554,101674.79151849724
2555,137285.5290053873
2556,100197.12025300282
2557,113588.9108902531
2558,132858.87308558176
2559,106447.77924145879
2560,144865.5771618749
2561,150125.329369647
2562,123633.0236914928
2563,140710.91427117557
2564,204864.33115878646
2565,143796.93273868016
2566,121453.53210984309
2567,108636.19278736782
2568,198851.24289627536
2569,203035.34023911087
2570,138157.39673963358
2571,160737.8388302677
2572,169876.5429082192
2573,200020.90521379464
2574,243187.21350757708
2575,133415.2846306704
2576,121325.1824022233
2577,125032.92702740921
2578,101503.89047808628
2579,69414.2693333473
2580,95800.59015077104
2581,122213.54527602096
2582,132156.0672127978
2583,262535.55937704694
2584,179485.38766329933
2585,183812.95354225722
2586,224473.12385956268
2587,215201.99595582712
2588,141329.14115082784
2589,155158.88122753138
2590,212277.9555910506
2591,227106.60069332752
2592,214529.57894547243
2593,220476.2528614168
2594,197728.80917721955
2595,199251.40586600424
2596,282244.8133673233
2597,178857.21150308795
2598,276847.34582525195
2599,357782.63367462205
2600,101705.76153628016
2601,147966.04701962718
2602,90740.89600886167
2603,94389.9511303125
2604,88152.94154314604
2605,89254.23199588542
2606,136194.89897118168
2607,234443.425305088
2608,223472.23812237778
2609,179902.51014153584
2610,105720.61008090955
2611,107537.99822449057
2612,162547.32309340333
2613,136480.56894761862
2614,126174.7618322839
2615,155707.5266061205
2616,162440.5137090673
2617,169273.22318589737
2618,179239.8357463661
2619,195422.52699249907
2620,198995.6925404357
2621,178026.4943831303
2622,188468.20746863764
2623,237477.11400020157
2624,325919.0285148001
2625,247486.97521606914
2626,189989.80241085147
2627,170611.59673576968
2628,420364.67979030526
2629,463658.4420155705
2630,353456.30491531827
2631,449501.34172497626
2632,369336.40290351317
2633,261079.15713561713
2634,393262.7845471984
2635,160029.06986212454
2636,200129.88037691542
2637,174367.21713311566
2638,256429.1531298751
2639,186313.50070635258
2640,155632.92576307434
2641,107539.80017892345
2642,176064.47374057712
2643,124454.37059578073
2644,134414.9601232683
2645,111179.32469863138
2646,108562.75672183887
2647,119422.37329365783
2648,152990.86345286833
2649,157407.64019762143
2650,153298.30647260163
2651,148694.15128441912
2652,401772.75299639563
2653,242186.031938139
2654,236250.39315460698
2655,345336.91860783927
2656,312359.0097607908
2657,316814.32796675526
2658,264046.1545579862
2659,307795.21669756284
2660,341458.225040187
2661,321045.1387403675
2662,301155.3801810389
2663,289915.3694266684
2664,246809.4965521469
2665,323186.39927261067
2666,267144.66296550335
2667,190243.23441568072
2668,200789.8610220327
2669,178584.25439897765
2670,292297.52458828577
2671,201871.05526899864
2672,211281.4195938748
2673,200511.9508106955
2674,211146.5230836303
2675,175073.0009455332
2676,202715.9861495902
2677,196786.69907685727
2678,276058.1248399582
2679,275934.58962724806
2680,280342.67513559473
2681,362125.9847509336
2682,303615.3716748021
2683,511856.35874869314
2684,299021.781281729
2685,328363.80991715024
2686,256544.17673259272
2687,318185.287884902
2688,228435.03259318712
2689,208357.10835517175
2690,410046.6785495406
2691,176113.42599728747
2692,130727.48569849177
2693,200470.6607730983
2694,143173.4675616985
2695,195486.36480619042
2696,187269.85346608944
2697,177931.27638758923
2698,203532.4439027692
2699,162214.61072543982
2700,142976.20784825046
2701,157555.55065923402
2702,123092.95316628697
2703,156819.56499629962
2704,147457.92316267182
2705,110283.1236847605
2706,112548.09260938197
2707,131856.44103120716
2708,118729.32429018793
2709,101940.26496811736
2710,121216.72131670533
2711,175895.17134964527
2712,360705.2307827739
2713,166639.5669977626
2714,157228.57335823527
2715,145227.88077454965
2716,146877.72121113387
2717,174982.9338661234
2718,216577.41567472354
2719,131933.46634377385
2720,205324.89824528302
2721,134357.27869512312
2722,166629.1627223518
2723,169480.41497131373
2724,120228.41178945516
2725,123380.28923352373
2726,129010.13404061354
2727,179158.0509695314
2728,182189.46797836336
2729,147199.12633603712
2730,133782.3834396387
2731,136848.85898996363
2732,118922.9885209643
2733,172902.22983041697
2734,154941.6704653133
2735,120239.29556304261
2736,135385.16537953948
2737,113035.99255044432
2738,130724.04687061497
2739,157649.39393236092
2740,135316.16818198236
2741,125536.74638875623
2742,155763.58550095974
2743,134808.09597697138
2744,163151.17410113532
2745,152585.14386300257
2746,122476.17390405058
2747,150534.6778568209
2748,123371.0829266214
2749,129470.02707218713
2750,127826.9046315851
2751,129536.00411097269
2752,241448.33185645257
2753,160412.46430793084
2754,220763.7069170325
2755,137581.2286139424
2756,96666.55305491359
2757,81373.07962855173
2758,92123.36748614044
2759,153510.1863247884
2760,114697.75410813476
2761,129533.32564348189
2762,129231.03038232397
2763,227114.96555285112
2764,176540.8268570677
2765,310302.8799507688
2766,119022.73115088485
2767,85840.97754915823
2768,106473.48282545026
2769,116729.6091037902
2770,162274.60493484023
2771,111050.06377373291
2772,95843.7356634597
2773,153231.73966719324
2774,130839.79918809072
2775,115906.89391306014
2776,140799.00632002394
2777,152547.2714635796
2778,135280.63883000892
2779,97234.01847743215
2780,104886.78305146631
2781,103689.75032366504
2782,97047.34487561476
2783,89070.47829097162
2784,116576.32286855689
2785,134582.87794133183
2786,77345.8737526664
2787,126163.3533066006
2788,74919.0510692075
2789,168356.40816739108
2790,97869.36962540676
2791,107914.60923923075
2792,65254.394801514725
2793,146857.2324599088
2794,90289.46229733288
2795,116652.16748594116
2796,96950.55277077401
2797,194373.1899791678
2798,121117.80697272606
2799,111447.70985476712
2800,77990.06082695338
2801,116318.84003651924
2802,125827.75527822717
2803,145747.33837740147
2804,140599.63849059746
2805,116222.82235666468
2806,85800.37990490507
2807,168068.2641280634
2808,145328.9090415068
2809,121671.07292469473
2810,126045.96521519103
2811,166299.27711476202
2812,173458.62045738453
2813,151100.96124991987
2814,147739.26786083472
2815,101371.89276178794
2816,227796.66533360915
2817,153699.46699927442
2818,129201.86889483302
2819,179551.71904491313
2820,129233.43299427118
2821,116260.63155017405
2822,203395.03256984355
2823,304340.44330459647
2824,156344.35201661126
2825,163988.53482051552
2826,130332.08811341127
2827,131388.28243152407
2828,212017.57981842774
2829,254936.30915790432
2830,226325.38084249152
2831,182526.31807628914
2832,235183.90917663588
2833,282989.177209615
2834,212835.53591732003
2835,209232.57723769103
2836,186229.7952815882
2837,172052.87816916473
2838,144883.96088855824
2839,181165.02762920025
2840,196407.7486902149
2841,194156.28451396246
2842,229243.72033004859
2843,147887.08889320877
2844,180800.5383874621
2845,123442.05497799756
2846,201505.7989548434
2847,207181.26007081833
2848,226071.56380460033
2849,199172.43368068495
2850,293244.28575061425
2851,223654.02260268823
2852,234518.95513431056
2853,232605.77606009343
2854,145241.50469405163
2855,204737.12043098477
2856,203907.95292696948
2857,189221.31311883585
2858,219773.7628096617
2859,121360.22880230528
2860,122940.25132346568
2861,127479.06352334119
2862,208448.6863338528
2863,129735.89830178212
2864,221753.26826228655
2865,153827.06266570205
2866,173218.6621415608
2867,96644.51275576696
2868,114074.90828572276
2869,106886.42566976555
2870,131615.1026606159
2871,97544.66990036526
2872,60379.293785647176
2873,103161.20812597129
2874,123934.084093541
2875,116868.47652011851
2876,190733.4754028318
2877,125908.24000168176
2878,160266.20650368833
2879,121695.79016768
2880,101441.75781448759
2881,137628.1993942343
2882,134945.35016309595
2883,164603.7704559797
2884,207416.67280281117
2885,158662.4823832002
2886,207700.8188419425
2887,115756.7160188685
2888,137181.98608972374
2889,72076.4290492907
2890,87660.37878787388
2891,128594.00961179781
2892,72327.60822458548
2893,93440.202859643
2894,66547.19346998828
2895,284459.50053899596
2896,251795.39585908168
2897,195573.18807631536
2898,158670.4806516172
2899,209093.11328694285
2900,151219.4377003847
2901,196940.10460371606
2902,175080.82279968855
2903,339202.29993109946
2904,339196.16930537287
2905,79755.50369852823
2906,232624.3229584481
2907,119880.5437211135
2908,132966.28903698863
2909,153302.6271578161
2910,83059.09829356967
2911,90926.63294545506
2912,146041.4308658536
2913,95431.2072897461
2914,85127.74943628034
2915,92780.5687143958
2916,95193.52154450996
2917,172475.58815666765
2918,108382.5513778156
2919,239580.32672688997
